{
    "manifestVersion": 1,
    "deployments": {
        "aspNetCoreWeb": [
        {
            "name": "crm-api-app",
            "parameters": {
                "appBundle": "api-bundle_20180424.zip",
                "iisPath": "/",
                "iisWebSite": "Default Web Site"
            }
        }
        ]
    }
}
